^C:\USERS\BELON\BELONOZHKO-LEVIN\LAB2\LAB2\DEBUG\MAIN.OBJ
A:\WINDOWS KITS\10\LIB\10.0.17763.0\UM\X86\KERNEL32.LIB
A:\WINDOWS KITS\10\LIB\10.0.17763.0\UM\X86\USER32.LIB
A:\WINDOWS KITS\10\LIB\10.0.17763.0\UM\X86\GDI32.LIB
A:\WINDOWS KITS\10\LIB\10.0.17763.0\UM\X86\WINSPOOL.LIB
A:\WINDOWS KITS\10\LIB\10.0.17763.0\UM\X86\COMDLG32.LIB
A:\WINDOWS KITS\10\LIB\10.0.17763.0\UM\X86\ADVAPI32.LIB
A:\WINDOWS KITS\10\LIB\10.0.17763.0\UM\X86\SHELL32.LIB
A:\WINDOWS KITS\10\LIB\10.0.17763.0\UM\X86\OLE32.LIB
A:\WINDOWS KITS\10\LIB\10.0.17763.0\UM\X86\OLEAUT32.LIB
A:\WINDOWS KITS\10\LIB\10.0.17763.0\UM\X86\UUID.LIB
A:\WINDOWS KITS\10\LIB\10.0.17763.0\UM\X86\ODBC32.LIB
A:\WINDOWS KITS\10\LIB\10.0.17763.0\UM\X86\ODBCCP32.LIB
C:\USERS\BELON\BELONOZHKO-LEVIN\LAB2\LAB2\DEBUG\MAIN.OBJ
C:\WINDOWS\GLOBALIZATION\SORTING\SORTDEFAULT.NLS
A:\PROGRAM\MICROSOFT VISUAL STUDIO\2017\COMMUNITY\VC\TOOLS\MSVC\14.16.27023\LIB\X86\MSVCPRTD.LIB
A:\PROGRAM\MICROSOFT VISUAL STUDIO\2017\COMMUNITY\VC\TOOLS\MSVC\14.16.27023\LIB\X86\MSVCRTD.LIB
A:\PROGRAM\MICROSOFT VISUAL STUDIO\2017\COMMUNITY\VC\TOOLS\MSVC\14.16.27023\LIB\X86\OLDNAMES.LIB
A:\PROGRAM\MICROSOFT VISUAL STUDIO\2017\COMMUNITY\VC\TOOLS\MSVC\14.16.27023\LIB\X86\VCRUNTIMED.LIB
A:\WINDOWS KITS\10\LIB\10.0.17763.0\UCRT\X86\UCRTD.LIB
A:\WINDOWS KITS\10\BIN\10.0.17763.0\X86\RC.EXE
A:\PROGRAM\MICROSOFT VISUAL STUDIO\2017\COMMUNITY\VC\TOOLS\MSVC\14.16.27023\BIN\HOSTX86\X86\CVTRES.EXE
A:\PROGRAM\MICROSOFT VISUAL STUDIO\2017\COMMUNITY\VC\TOOLS\MSVC\14.16.27023\BIN\HOSTX86\X86\MSPDBSRV.EXE
C:\WINDOWS\SYSTEM32\TZRES.DLL
